digraph G{
	graph [ratio="compress", size="100,100"];
	edge [arrowhead="open"];
	0[label="G0"];
	1[label="G1"];
	2[label="G2"];
	3[label="G3"];
	4[label="G4"];
	5[label="G5"];
	6[label="G6"];
	7[label="G7"];
	8[label="G8"];
	9[label="G9"];
	0 -> 3[color="#00cc00"];
	0 -> 1[color="#00cc00"];
	2 -> 6[color="#00cc00"];
	2 -> 3[color="#00cc00"];
	6 -> 2[color="#00cc00"];
	6 -> 3[color="#00cc00"];
	7 -> 1[color="#00cc00"];
	0 -> 7[color="#e60000"];
	1 -> 4[color="#e60000"];
	1 -> 0[color="#e60000"];
	1 -> 6[color="#e60000"];
	2 -> 4[color="#e60000"];
	3 -> 0[color="#e60000"];
	3 -> 7[color="#e60000"];
	3 -> 1[color="#e60000"];
	4 -> 3[color="#e60000"];
	4 -> 1[color="#e60000"];
	4 -> 2[color="#e60000"];
	5 -> 8[color="#e60000"];
	5 -> 4[color="#e60000"];
	5 -> 6[color="#e60000"];
	6 -> 4[color="#e60000"];
	7 -> 3[color="#e60000"];
	7 -> 0[color="#e60000"];
	8 -> 6[color="#e60000"];
	8 -> 4[color="#e60000"];
	8 -> 7[color="#e60000"];
	9 -> 4[color="#e60000"];
	9 -> 7[color="#e60000"];
	9 -> 5[color="#e60000"];
}